{
    "_comment": {
        "_CONFIG-FILE": "Here you can adjust variables for ban Command",
        "sys_banMentionUser": "When you don't @mention the user",
        "sys_banLowerPerm": "When you try to ban a user who has same, or higher role than you",
        "sys_banDefReason": "Default ban reason"
    }, 

    "sys_banMentionUser": "You must @mention the user you want to ban",
    "sys_banLowerPerm": "You cannot ban the user who has the same role or higher than you!",
    "sys_banDefReason": "The reason was not given "
}