{
    "_comment": {
        "_CONFIG-FILE": "Here you can adjust variables for createchannel command",
        "sys_createchannelSuccess": "When the creation of new channel will succed",
        "sys_createchannelErr": "When error occured"
    },

    "sys_createchannelSuccess": "Successfully created a new channel:",
    "sys_createchannelErr": ":exclamation: An error occured while creating a channel:"
}